[
    {
        "band": 28,
        "providers": [
            {
                "provider": {
                    "name": "iliad",
                    "longName": "iliad",
                    "homePage": "https://www.iliad.it",
                    "backgroundColor": "#c12026",
                    "textColor": "white"
                },
                "frequency": {
                    "downLink": {
                        "start": 758,
                        "end": 768
                    },
                    "upLink": {
                        "start": 703,
                        "end": 713
                    }
                },
                "valid": {
                    "start": "1.7.2022",
                    "end": "31.12.2037"
                },
                "technology": [
                    "LTE",
                    "NR"
                ],
                "source": [
                    {
                        "name": "EFIS CEPT",
                        "url": "https://efis.cept.org/view/rightofuseinfo.do"
                    }
                ]
            },
            {
                "provider": {
                    "name": "TIM",
                    "longName": "TIM",
                    "homePage": "https://www.tim.it",
                    "backgroundColor": "#0033a1",
                    "textColor": "white"
                },
                "frequency": {
                    "downLink": {
                        "start": 768,
                        "end": 778
                    },
                    "upLink": {
                        "start": 713,
                        "end": 723
                    }
                },
                "valid": {
                    "start": "1.7.2022",
                    "end": "31.12.2037"
                },
                "technology": [
                    "NR"
                ],
                "source": [
                    {
                        "name": "EFIS CEPT",
                        "url": "https://efis.cept.org/view/rightofuseinfo.do"
                    }
                ]
            },
            {
                "provider": {
                    "name": "Vodafone",
                    "longName": "Vodafone IT",
                    "homePage": "https://www.vodafone.it",
                    "backgroundColor": "#e60000",
                    "textColor": "white"
                },
                "frequency": {
                    "downLink": {
                        "start": 778,
                        "end": 788
                    },
                    "upLink": {
                        "start": 723,
                        "end": 733
                    }
                },
                "valid": {
                    "start": "1.7.2022",
                    "end": "31.12.2037"
                },
                "technology": [
                    "NR"
                ],
                "source": [
                    {
                        "name": "EFIS CEPT",
                        "url": "https://efis.cept.org/view/rightofuseinfo.do"
                    }
                ]
            }
        ]
    },
    {
        "band": 20,
        "providers": [
            {
                "provider": {
                    "name": "WindTre",
                    "longName": "Wind Tre",
                    "homePage": "https://www.windtre.it",
                    "backgroundColor": "#ff6906",
                    "textColor": "white"
                },
                "frequency": {
                "arfcn": [
                        6200
                    ],
                    "downLink": {
                        "start": 791,
                        "end": 801
                    },
                    "upLink": {
                        "start": 832,
                        "end": 842
                    }
                },
                "valid": {
                    "start": "1.1.2013",
                    "end": "31.12.2029"
                },
                "technology": [
                    "LTE"
                ],
                "source": [
                    {
                        "name": "EFIS CEPT",
                        "url": "https://efis.cept.org/view/rightofuseinfo.do"
                    },
                    {
                        "name": "LTE Italy",
                        "url": "https://lteitaly.it/spectrum.php"
                    }
                ]
            },
            {
                "provider": {
                    "name": "TIM",
                    "longName": "TIM",
                    "homePage": "https://www.tim.it",
                    "backgroundColor": "#0033a1",
                    "textColor": "white"
                },
                "frequency": {
                    "arfcn": [
                        6300
                    ],
                    "downLink": {
                        "start": 801,
                        "end": 811
                    },
                    "upLink": {
                        "start": 842,
                        "end": 852
                    }
                },
                "valid": {
                    "start": "1.1.2013",
                    "end": "31.12.2029"
                },
                "technology": [
                    "LTE"
                ],
                "source": [
                    {
                        "name": "EFIS CEPT",
                        "url": "https://efis.cept.org/view/rightofuseinfo.do"
                    },
                    {
                        "name": "LTE Italy",
                        "url": "https://lteitaly.it/spectrum.php"
                    }
                ]
            },
            {
                "provider": {
                    "name": "Vodafone",
                    "longName": "Vodafone IT",
                    "homePage": "https://www.vodafone.it",
                    "backgroundColor": "#e60000",
                    "textColor": "white"
                },
                "frequency": {
                    "arfcn": [
                        6400
                    ],
                    "downLink": {
                        "start": 811,
                        "end": 821
                    },
                    "upLink": {
                        "start": 852,
                        "end": 862
                    }
                },
                "valid": {
                    "start": "1.1.2013",
                    "end": "31.12.2029"
                },
                "technology": [
                    "LTE"
                ],
                "source": [
                    {
                        "name": "EFIS CEPT",
                        "url": "https://efis.cept.org/view/rightofuseinfo.do"
                    },
                    {
                        "name": "LTE Italy",
                        "url": "https://lteitaly.it/spectrum.php"
                    }
                ]
            }
        ]
    },
    {
        "band": 8,
        "providers": [
            {
                "provider": {
                    "name": "iliad",
                    "longName": "iliad",
                    "homePage": "https://www.iliad.it",
                    "backgroundColor": "#c12026",
                    "textColor": "white"
                },
                "frequency": {
                    "arfcn": [
                        2938
                    ],
                    "downLink": {
                        "start": 925.1,
                        "end": 930.1
                    },
                    "upLink": {
                        "start": 880.1,
                        "end": 885.1 
                    }
                },
                "valid": {
                    "start": "19.5.2010",
                    "end": "31.12.2029"
                },
                "technology": [
                    "UMTS"
                ],
                "source": [
                    {
                        "name": "EFIS CEPT",
                        "url": "https://efis.cept.org/view/rightofuseinfo.do"
                    },
                    {
                        "name": "LTE Italy",
                        "url": "https://lteitaly.it/spectrum.php"
                    },
                    {
                        "name": "AGCOM Delibera 338/20/CONS",
                        "url": "https://www.agcom.it/documentazione/documento?p_p_auth=fLw7zRht&p_p_id=101_INSTANCE_FnOw5lVOIXoE&p_p_lifecycle=0&p_p_col_id=column-1&p_p_col_count=1&_101_INSTANCE_FnOw5lVOIXoE_struts_action=%2Fasset_publisher%2Fview_content&_101_INSTANCE_FnOw5lVOIXoE_assetEntryId=19575041&_101_INSTANCE_FnOw5lVOIXoE_type=document"
                    }
                ]
            },
            {
                "provider": {
                    "name": "TIM",
                    "longName": "TIM",
                    "homePage": "https://www.tim.it",
                    "backgroundColor": "#0033a1",
                    "textColor": "white"
                },
                "frequency": {
                    "arfcn": [
                        2963, 3526
                    ],
                    "downLink": {
                        "start": 930.2,
                        "end": 940 
                    },
                    "upLink": {
                        "start": 885.2,
                        "end": 895
                    }
                },
                "valid": {
                    "start": "1.1.1995",
                    "end": "31.12.2029"
                },
                "technology": [
                    "GSM",
                    "UMTS",
                    "LTE"
                ],
                "source": [
                    {
                        "name": "EFIS CEPT",
                        "url": "https://efis.cept.org/view/rightofuseinfo.do"
                    },
                    {
                        "name": "LTE Italy",
                        "url": "https://lteitaly.it/spectrum.php"
                    }
                ]
            },
            {
                "provider": {
                    "name": "Vodafone",
                    "longName": "Vodafone IT",
                    "homePage": "https://www.vodafone.it",
                    "backgroundColor": "#e60000",
                    "textColor": "white"
                },
                "frequency": {
                    "arfcn": [
                        3038, 3676
                    ],
                    "downLink": {
                        "start": 940.4,
                        "end": 950
                    },
                    "upLink": {
                        "start": 895.4,
                        "end": 905
                    }
                },
                "valid": {
                    "start": "1.1.1995",
                    "end": "31.12.2029"
                },
                "technology": [
                    "GSM",
                    "UMTS",
                    "LTE"
                ],
                "source": [
                    {
                        "name": "EFIS CEPT",
                        "url": "https://efis.cept.org/view/rightofuseinfo.do"
                    },
                    {
                        "name": "LTE Italy",
                        "url": "https://lteitaly.it/spectrum.php"
                    }
                ]
            },
            {
                "provider": {
                    "name": "WindTre",
                    "longName": "Wind Tre",
                    "homePage": "https://www.windtre.it",
                    "backgroundColor": "#ff6906",
                    "textColor": "white"
                },
                "frequency": {
                    "arfcn": [
                        3063
                    ],
                    "downLink": {
                        "start": 950.2,
                        "end": 959.8
                    },
                    "upLink": {
                        "start": 905.2,
                        "end": 914.8
                    }
                },
                "valid": {
                    "start": "30.6.1998",
                    "end": "31.12.2029"
                },
                "technology": [
                    "GSM",
                    "UMTS"
                ],
                "source": [
                    {
                        "name": "EFIS CEPT",
                        "url": "https://efis.cept.org/view/rightofuseinfo.do"
                    },
                    {
                        "name": "LTE Italy",
                        "url": "https://lteitaly.it/spectrum.php"
                    }
                ]
            }
        ]
    },
    {
        "band": 32,
        "providers": [
            {
                "provider": {
                    "name": "TIM",
                    "longName": "TIM",
                    "homePage": "https://www.tim.it",
                    "backgroundColor": "#0033a1",
                    "textColor": "white"
                },
                "frequency": {
                    "arfcn": [
                        10020
                    ],
                    "downLink": {
                        "start": 1452,
                        "end": 1472
                    },
                    "upLink": {
                        "start": 1452,
                        "end": 1472
                    }
                },
                "valid": {
                    "start": "1.11.2015",
                    "end": "31.12.2029"
                },
                "technology": [
                    "LTE"
                ],
                "source": [
                    {
                        "name": "EFIS CEPT",
                        "url": "https://efis.cept.org/view/rightofuseinfo.do"
                    },
                    {
                        "name": "LTE Italy",
                        "url": "https://lteitaly.it/spectrum.php"
                    }
                ]
            },
            {
                "provider": {
                    "name": "Vodafone",
                    "longName": "Vodafone IT",
                    "homePage": "https://www.vodafone.it",
                    "backgroundColor": "#e60000",
                    "textColor": "white"
                },
                "frequency": {
                    "arfcn": [
                        10220
                    ],
                    "downLink": {
                        "start": 1472,
                        "end": 1492
                    },
                    "upLink": {
                        "start": 1472,
                        "end": 1492
                    }
                },
                "valid": {
                    "start": "1.11.2015",
                    "end": "31.12.2029"
                },
                "technology": [
                    "LTE"
                ],
                "source": [
                    {
                        "name": "EFIS CEPT",
                        "url": "https://efis.cept.org/view/rightofuseinfo.do"
                    },
                    {
                        "name": "LTE Italy",
                        "url": "https://lteitaly.it/spectrum.php"
                    }
                ]
            }
        ]
    },
    
    {
        "band": 3,
        "providers": [
            {
                "provider": {
                    "name": "Public safety",
                    "longName": "Ministero della difesa",
                    "homePage": "https://www.difesa.it",
                    "backgroundColor": "#dbd7d6",
                    "textColor": "black"
                },
                "frequency": {
                    "arfcn": [
                        1225
                    ],
                    "downLink": {
                        "start": 1805,
                        "end": 1810
                    },
                    "upLink": {
                        "start": 1710,
                        "end": 1715
                    }
                },
                "technology": [
                    "LTE"
                ],
                "source": [
                    {
                        "name": "AGCOM Delibera 282/11/CONS",
                        "url": "https://www.agcom.it/documents/10179/539607/Delibera+282-11-CONS/ea288392-3dbb-4709-a085-b21ff17ba66e?version=1.0"
                    },
                    {
                        "name": "LTE Italy",
                        "url": "https://lteitaly.it/spectrum.php"
                    }
                ]
            },
            {
                "provider": {
                    "name": "TIM",
                    "longName": "TIM",
                    "homePage": "https://www.tim.it",
                    "backgroundColor": "#0033a1",
                    "textColor": "white"
                },
                "frequency": {
                    "arfcn": [
                        1350
                    ],
                    "downLink": {
                        "start": 1810,
                        "end": 1830
                    },
                    "upLink": {
                        "start": 1715,
                        "end": 1735
                    }
                },
                "valid": {
                    "start": "1.1.2012",
                    "end": "31.12.2029"
                },
                "technology": [
                    "GSM",
                    "LTE"
                ],
                "source": [
                    {
                        "name": "EFIS CEPT",
                        "url": "https://efis.cept.org/view/rightofuseinfo.do"
                    },
                    {
                        "name": "LTE Italy",
                        "url": "https://lteitaly.it/spectrum.php"
                    }
                ]
            },
            {
                "provider": {
                    "name": "iliad",
                    "longName": "iliad",
                    "homePage": "https://www.iliad.it",
                    "backgroundColor": "#c12026",
                    "textColor": "white"
                },
                "frequency": {
                    "arfcn": [
                        1500
                    ],
                    "downLink": {
                        "start": 1830,
                        "end": 1840
                    },
                    "upLink": {
                        "start": 1735,
                        "end": 1745
                    }
                },
                "valid": {
                    "start": "1.1.2012",
                    "end": "31.12.2029"
                },
                "technology": [
                    "LTE"
                ],
                "source": [
                    {
                        "name": "EFIS CEPT",
                        "url": "https://efis.cept.org/view/rightofuseinfo.do"
                    },
                    {
                        "name": "LTE Italy",
                        "url": "https://lteitaly.it/spectrum.php"
                    }
                ]
            },
            {
                "provider": {
                    "name": "WindTre",
                    "longName": "Wind Tre",
                    "homePage": "https://www.windtre.it",
                    "backgroundColor": "#ff6906",
                    "textColor": "white"
                },
                "frequency": {
                    "arfcn": [
                        1650, 368890, 371530
                    ],
                    "downLink": {
                        "start": 1840,
                        "end": 1860
                    },
                    "upLink": {
                        "start": 1745,
                        "end": 1765
                    }
                },
                "valid": {
                    "start": "1.1.2012",
                    "end": "31.12.2029"
                },
                "technology": [
                    "GSM",
                    "LTE",
                    "NR"
                ],
                "source": [
                    {
                        "name": "EFIS CEPT",
                        "url": "https://efis.cept.org/view/rightofuseinfo.do"
                    },
                    {
                        "name": "LTE Italy",
                        "url": "https://lteitaly.it/spectrum.php"
                    }
                ]
            },
            {
                "provider": {
                    "name": "Vodafone",
                    "longName": "Vodafone IT",
                    "homePage": "https://www.vodafone.it",
                    "backgroundColor": "#e60000",
                    "textColor": "white"
                },
                "frequency": {
                    "arfcn": [
                        1850
                    ],
                    "downLink": {
                        "start": 1860,
                        "end": 1880
                    },
                    "upLink": {
                        "start": 1765,
                        "end": 1785
                    }
                },
                "valid": {
                    "start": "1.1.2012",
                    "end": "31.12.2029"
                },
                "technology": [
                    "GSM",
                    "LTE"
                ],
                "source": [
                    {
                        "name": "EFIS CEPT",
                        "url": "https://efis.cept.org/view/rightofuseinfo.do"
                    },
                    {
                        "name": "LTE Italy",
                        "url": "https://lteitaly.it/spectrum.php"
                    }
                ]
            }
        ]
    },
    {
        "band": 1,
        "providers": [
            {
                "provider": {
                    "name": "WindTre",
                    "longName": "Wind Tre",
                    "homePage": "https://www.windtre.it",
                    "backgroundColor": "#ff6906",
                    "textColor": "white"
                },
                "frequency": {
                    "arfcn": [
                        10563, 10588, 150
                    ],
                    "downLink": {
                        "start": 2110,
                        "end": 2130
                    },
                    "upLink": {
                        "start": 1920,
                        "end": 1940
                    }
                },
                "valid": {
                    "start": "1.1.2001",
                    "end": "31.12.2029"
                },
                "technology": [
                    "UMTS",
                    "LTE"
                ],
                "source": [
                    {
                        "name": "AGCOM Delibera 338/20/CONS",
                        "url": "https://www.agcom.it/documentazione/documento?p_p_auth=fLw7zRht&p_p_id=101_INSTANCE_FnOw5lVOIXoE&p_p_lifecycle=0&p_p_col_id=column-1&p_p_col_count=1&_101_INSTANCE_FnOw5lVOIXoE_struts_action=%2Fasset_publisher%2Fview_content&_101_INSTANCE_FnOw5lVOIXoE_assetEntryId=19575041&_101_INSTANCE_FnOw5lVOIXoE_type=document"
                    },
                    {
                        "name": "AGCOM Allegato B delibera 149/20/CONS",
                        "url": "https://www.agcom.it/documents/10179/4527308/Allegato+10-4-2020+1586515525382/add7f336-0fd0-435e-ba12-b40ec4cf6956?version=1.0"
                    },
                    {
                        "name": "LTE Italy",
                        "url": "https://lteitaly.it/spectrum.php"
                    }
                ]
            },
            {
                "provider": {
                    "name": "TIM",
                    "longName": "TIM",
                    "homePage": "https://www.tim.it",
                    "backgroundColor": "#0033a1",
                    "textColor": "white"
                },
                "frequency": {
                    "arfcn": [
                        10663, 10688, 10713, 300
                    ],
                    "downLink": {
                        "start": 2130,
                        "end": 2145
                    },
                    "upLink": {
                        "start": 1940,
                        "end": 1955
                    }
                },
                "valid": {
                    "start": "1.1.2001",
                    "end": "31.12.2029"
                },
                "technology": [
                    "UMTS",
                    "LTE"
                ],
                "source": [
                    {
                        "name": "AGCOM Delibera 338/20/CONS",
                        "url": "https://www.agcom.it/documentazione/documento?p_p_auth=fLw7zRht&p_p_id=101_INSTANCE_FnOw5lVOIXoE&p_p_lifecycle=0&p_p_col_id=column-1&p_p_col_count=1&_101_INSTANCE_FnOw5lVOIXoE_struts_action=%2Fasset_publisher%2Fview_content&_101_INSTANCE_FnOw5lVOIXoE_assetEntryId=19575041&_101_INSTANCE_FnOw5lVOIXoE_type=document"
                    },
                    {
                        "name": "AGCOM Allegato B delibera 149/20/CONS",
                        "url": "https://www.agcom.it/documents/10179/4527308/Allegato+10-4-2020+1586515525382/add7f336-0fd0-435e-ba12-b40ec4cf6956?version=1.0"
                    },
                    {
                        "name": "LTE Italy",
                        "url": "https://lteitaly.it/spectrum.php"
                    }
                ]
            },
            {
                "provider": {
                    "name": "iliad",
                    "longName": "iliad",
                    "homePage": "https://www.iliad.it",
                    "backgroundColor": "#c12026",
                    "textColor": "white"
                },
                "frequency": {
                    "arfcn": [
                        400
                    ],
                    "downLink": {
                        "start": 2145,
                        "end": 2155
                    },
                    "upLink": {
                        "start": 1955,
                        "end": 1965
                    }
                },
                "valid": {
                    "start": "1.1.2001",
                    "end": "31.12.2029"
                },
                "technology": [
                    "LTE"
                ],
                "source": [
                    {
                        "name": "AGCOM Delibera 338/20/CONS",
                        "url": "https://www.agcom.it/documentazione/documento?p_p_auth=fLw7zRht&p_p_id=101_INSTANCE_FnOw5lVOIXoE&p_p_lifecycle=0&p_p_col_id=column-1&p_p_col_count=1&_101_INSTANCE_FnOw5lVOIXoE_struts_action=%2Fasset_publisher%2Fview_content&_101_INSTANCE_FnOw5lVOIXoE_assetEntryId=19575041&_101_INSTANCE_FnOw5lVOIXoE_type=document"
                    },
                    {
                        "name": "AGCOM Allegato B delibera 149/20/CONS",
                        "url": "https://www.agcom.it/documents/10179/4527308/Allegato+10-4-2020+1586515525382/add7f336-0fd0-435e-ba12-b40ec4cf6956?version=1.0"
                    },
                    {
                        "name": "EFIS CEPT",
                        "url": "https://efis.cept.org/view/rightofuseinfo.do"
                    },
                    {
                        "name": "LTE Italy",
                        "url": "https://lteitaly.it/spectrum.php"
                    }
                ]
            },
            {
                "provider": {
                    "name": "Vodafone",
                    "longName": "Vodafone IT",
                    "homePage": "https://www.vodafone.it",
                    "backgroundColor": "#e60000",
                    "textColor": "white"
                },
                "frequency": {
                    "arfcn": [
                        10838, 501, 525, 432050, 432500
                    ],
                    "downLink": {
                        "start": 2155,
                        "end": 2170
                    },
                    "upLink": {
                        "start": 1965,
                        "end": 1980
                    }
                },
                "valid": {
                    "start": "1.1.2001",
                    "end": "31.12.2029"
                },
                "technology": [
                    "UMTS",
                    "LTE",
                    "NR"
                ],
                "source": [
                    {
                        "name": "AGCOM Delibera 338/20/CONS",
                        "url": "https://www.agcom.it/documentazione/documento?p_p_auth=fLw7zRht&p_p_id=101_INSTANCE_FnOw5lVOIXoE&p_p_lifecycle=0&p_p_col_id=column-1&p_p_col_count=1&_101_INSTANCE_FnOw5lVOIXoE_struts_action=%2Fasset_publisher%2Fview_content&_101_INSTANCE_FnOw5lVOIXoE_assetEntryId=19575041&_101_INSTANCE_FnOw5lVOIXoE_type=document"
                    },
                    {
                        "name": "AGCOM Allegato B delibera 149/20/CONS",
                        "url": "https://www.agcom.it/documents/10179/4527308/Allegato+10-4-2020+1586515525382/add7f336-0fd0-435e-ba12-b40ec4cf6956?version=1.0"
                    },
                    {
                        "name": "EFIS CEPT",
                        "url": "https://efis.cept.org/view/rightofuseinfo.do"
                    },
                    {
                        "name": "LTE Italy",
                        "url": "https://lteitaly.it/spectrum.php"
                    }
                ]
            }
        ]
    },
    {
        "band": 38,
        "providers": [
            {
                "provider": {
                    "name": "WindTre",
                    "longName": "Wind Tre",
                    "homePage": "https://www.windtre.it",
                    "backgroundColor": "#ff6906",
                    "textColor": "white"
                },
                "frequency": {
                    "arfcn": [
                        37900, 40540
                    ],
                    "downLink": {
                        "start": 2570,
                        "end": 2600
                    },
                    "upLink": {
                        "start": 2570,
                        "end": 2600
                    }
                },
                "valid": {
                    "start": "1.1.2013",
                    "end": "31.12.2029"
                },
                "technology": [
                    "LTE"
                ],
                "source": [
                    {
                        "name": "EFIS CEPT",
                        "url": "https://efis.cept.org/view/rightofuseinfo.do"
                    },
                    {
                        "name": "LTE Italy",
                        "url": "https://lteitaly.it/spectrum.php"
                    }
                ]
            },
            {
                "provider": {
                    "name": "Public safety",
                    "longName": "Ministero della difesa",
                    "homePage": "https://www.difesa.it",
                    "backgroundColor": "#dbd7d6",
                    "textColor": "black"
                },
                "frequency": {
                    "downLink": {
                        "start": 2600,
                        "end": 2620
                    },
                    "upLink": {
                        "start": 2600,
                        "end": 2620
                    }
                },
                "source": [
                    {
                        "name": "AGCOM Comunicazione 30/06/2020",
                        "url": "https://www.agcom.it/documentazione/documento?p_p_auth=fLw7zRht&p_p_id=101_INSTANCE_FnOw5lVOIXoE&p_p_lifecycle=0&p_p_col_id=column-1&p_p_col_count=1&_101_INSTANCE_FnOw5lVOIXoE_struts_action=%2Fasset_publisher%2Fview_content&_101_INSTANCE_FnOw5lVOIXoE_assetEntryId=19234568&_101_INSTANCE_FnOw5lVOIXoE_type=document"
                    }
                ]
            }
        ]
    },
    {
        "band": 7,
        "providers": [
            {
                "provider": {
                    "name": "Public safety",
                    "longName": "Ministero della difesa",
                    "homePage": "https://www.difesa.it",
                    "backgroundColor": "#dbd7d6",
                    "textColor": "black"
                },
                "frequency": {
                    "arfcn": [
                        2800
                    ],
                    "downLink": {
                        "start": 2620,
                        "end": 2630
                    },
                    "upLink": {
                        "start": 2500,
                        "end": 2510
                    }
                },
                "technology": [
                    "LTE"
                ],
                "source": [
                    {
                        "name": "AGCOM Comunicazione 30/06/2020",
                        "url": "https://www.agcom.it/documentazione/documento?p_p_auth=fLw7zRht&p_p_id=101_INSTANCE_FnOw5lVOIXoE&p_p_lifecycle=0&p_p_col_id=column-1&p_p_col_count=1&_101_INSTANCE_FnOw5lVOIXoE_struts_action=%2Fasset_publisher%2Fview_content&_101_INSTANCE_FnOw5lVOIXoE_assetEntryId=19234568&_101_INSTANCE_FnOw5lVOIXoE_type=document"
                    },
                    {
                        "name": "LTE Italy",
                        "url": "https://lteitaly.it/spectrum.php"
                    }
                ]
            },
            {
                "provider": {
                    "name": "iliad",
                    "longName": "iliad",
                    "homePage": "https://www.iliad.it",
                    "backgroundColor": "#c12026",
                    "textColor": "white"
                },
                "frequency": {
                    "arfcn": [
                        2900
                    ],
                    "downLink": {
                        "start": 2630,
                        "end": 2640
                    },
                    "upLink": {
                        "start": 2510,
                        "end": 2520
                    }
                },
                "valid": {
                    "start": "1.1.2013",
                    "end": "31.12.2029"
                },
                "technology": [
                    "LTE"
                ],
                "source": [
                    {
                        "name": "EFIS CEPT",
                        "url": "https://efis.cept.org/view/rightofuseinfo.do"
                    },
                    {
                        "name": "LTE Italy",
                        "url": "https://lteitaly.it/spectrum.php"
                    }
                ]
            },
            {
                "provider": {
                    "name": "Vodafone",
                    "longName": "Vodafone IT",
                    "homePage": "https://www.vodafone.it",
                    "backgroundColor": "#e60000",
                    "textColor": "white"
                },
                "frequency": {
                    "arfcn": [
                        3025
                    ],
                    "downLink": {
                        "start": 2640,
                        "end": 2655
                    },
                    "upLink": {
                        "start": 2520,
                        "end": 2535
                    }
                },
                "valid": {
                    "start": "1.1.2013",
                    "end": "31.12.2029"
                },
                "technology": [
                    "LTE"
                ],
                "source": [
                    {
                        "name": "EFIS CEPT",
                        "url": "https://efis.cept.org/view/rightofuseinfo.do"
                    },
                    {
                        "name": "LTE Italy",
                        "url": "https://lteitaly.it/spectrum.php"
                    }
                ]
            },
            {
                "provider": {
                    "name": "TIM",
                    "longName": "TIM",
                    "homePage": "https://www.tim.it",
                    "backgroundColor": "#0033a1",
                    "textColor": "white"
                },
                "frequency": {
                    "arfcn": [
                        3175
                    ],
                    "downLink": {
                        "start": 2655,
                        "end": 2670
                    },
                    "upLink": {
                        "start": 2535,
                        "end": 2550
                    }
                },
                "valid": {
                    "start": "1.1.2013",
                    "end": "31.12.2029"
                },
                "technology": [
                    "LTE"
                ],
                "source": [
                    {
                        "name": "EFIS CEPT",
                        "url": "https://efis.cept.org/view/rightofuseinfo.do"
                    },
                    {
                        "name": "LTE Italy",
                        "url": "https://lteitaly.it/spectrum.php"
                    }
                ]
            },
            {
                "provider": {
                    "name": "WindTre",
                    "longName": "Wind Tre",
                    "homePage": "https://www.windtre.it",
                    "backgroundColor": "#ff6906",
                    "textColor": "white"
                },
                "frequency": {
                    "arfcn": [
                        3350, 535010, 537410
                    ],
                    "downLink": {
                        "start": 2670,
                        "end": 2690
                    },
                    "upLink": {
                        "start": 2550,
                        "end": 2570
                    }
                },
                "valid": {
                    "start": "1.1.2013",
                    "end": "31.12.2029"
                },
                "technology": [
                    "LTE",
                    "NR"
                ],
                "source": [
                    {
                        "name": "EFIS CEPT",
                        "url": "https://efis.cept.org/view/rightofuseinfo.do"
                    },
                    {
                        "name": "LTE Italy",
                        "url": "https://lteitaly.it/spectrum.php"
                    }
                ]
            }
        ]
    },
    {
        "band": 78,
        "providers": [
            {
                "provider": {
                    "name": "Regional licenses",
                    "longName": "Fastweb AIR (formely Aria), Linkem, Telecom Italia, EOLO, Brennercom, GO Internet",
                    "backgroundColor": "darkgray",
                    "homePage": "https://efis.cept.org/view/rightofuseinfo.do?command=search&applicationterm=&low=3437&high=3599&unit=MHz&sortRadiopost=1&temppost=-1&user=20",
                    "textColor": "white"
                },
                "frequency": {
                    "downLink": {
                        "start": 3437,
                        "end": 3600
                    },
                    "upLink": {
                        "start": 3437,
                        "end": 3600
                    }
                },
                "valid": {
                    "start": "1.5.2008",
                    "end": "21.5.2023"
                },
                "technology": [
                    "WiMAX",
                    "LTE",
                    "NR"
                ],
                "source": [
                    {
                        "name": "EFIS CEPT",
                        "url": "https://efis.cept.org/view/rightofuseinfo.do"
                    }
                ]
            },
            {
                "provider": {
                    "name": "WindTre",
                    "longName": "Wind Tre",
                    "homePage": "https://www.windtre.it",
                    "backgroundColor": "#ff6906",
                    "textColor": "white"
                },
                "frequency": {
                    "arfcn": [
                        638976, 640320
                    ],
                    "downLink": {
                        "start": 3600,
                        "end": 3620
                    },
                    "upLink": {
                        "start": 3600,
                        "end": 3620
                    }
                },
                "valid": {
                    "start": "1.1.2019",
                    "end": "31.12.2037"
                },
                "technology": [
                    "NR"
                ],
                "source": [
                    {
                        "name": "EFIS CEPT",
                        "url": "https://efis.cept.org/view/rightofuseinfo.do"
                    }
                ]
            },
            {
                "provider": {
                    "name": "iliad",
                    "longName": "iliad",
                    "homePage": "https://www.iliad.it",
                    "backgroundColor": "#c12026",
                    "textColor": "white"
                },
                "frequency": {
                    "arfcn": [
                        642048
                    ],
                    "downLink": {
                        "start": 3620,
                        "end": 3640
                    },
                    "upLink": {
                        "start": 3620,
                        "end": 3640
                    }
                },
                "valid": {
                    "start": "1.1.2019",
                    "end": "31.12.2037"
                },
                "technology": [
                    "NR"
                ],
                "source": [
                    {
                        "name": "EFIS CEPT",
                        "url": "https://efis.cept.org/view/rightofuseinfo.do"
                    }
                ]
            },
            {
                "provider": {
                    "name": "Vodafone",
                    "longName": "Vodafone IT",
                    "homePage": "https://www.vodafone.it",
                    "backgroundColor": "#e60000",
                    "textColor": "white"
                },
                "frequency": {
                    "arfcn": [
                        643296, 644640, 645312
                    ],
                    "downLink": {
                        "start": 3640,
                        "end": 3720
                    },
                    "upLink": {
                        "start": 3640,
                        "end": 3720
                    }
                },
                "valid": {
                    "start": "1.1.2019",
                    "end": "31.12.2037"
                },
                "technology": [
                    "NR"
                ],
                "source": [
                    {
                        "name": "EFIS CEPT",
                        "url": "https://efis.cept.org/view/rightofuseinfo.do"
                    }
                ]
            },
            {
                "provider": {
                    "name": "TIM",
                    "longName": "TIM",
                    "homePage": "https://www.tim.it",
                    "backgroundColor": "#0033a1",
                    "textColor": "white"
                },
                "frequency": {
                    "arfcn": [
                        648384, 650654, 650688
                    ],
                    "downLink": {
                        "start": 3720,
                        "end": 3800
                    },
                    "upLink": {
                        "start": 3720,
                        "end": 3800
                    }
                },
                "valid": {
                    "start": "1.1.2019",
                    "end": "31.12.2037"
                },
                "technology": [
                    "NR"
                ],
                "source": [
                    {
                        "name": "EFIS CEPT",
                        "url": "https://efis.cept.org/view/rightofuseinfo.do"
                    }
                ]
            }
        ]
    },
    {
        "band": 257,
        "providers": [
            {
                "provider": {
                    "name": "WindTre",
                    "longName": "Wind Tre",
                    "homePage": "https://www.windtre.it",
                    "backgroundColor": "#ff6906",
                    "textColor": "white"
                },
                "frequency": {
                    "downLink": {
                        "start": 26500,
                        "end": 26700
                    },
                    "upLink": {
                        "start": 26500,
                        "end": 26700
                    }
                },
                "valid": {
                    "start": "1.1.2019",
                    "end": "31.12.2037"
                },
                "technology": [
                    "NR"
                ],
                "source": [
                    {
                        "name": "EFIS CEPT",
                        "url": "https://efis.cept.org/view/rightofuseinfo.do"
                    }
                ]
            },
            {
                "provider": {
                    "name": "iliad",
                    "longName": "iliad",
                    "homePage": "https://www.iliad.it",
                    "backgroundColor": "#c12026",
                    "textColor": "white"
                },
                "frequency": {
                    "downLink": {
                        "start": 26700,
                        "end": 26900
                    },
                    "upLink": {
                        "start": 26700,
                        "end": 26900
                    }
                },
                "valid": {
                    "start": "1.1.2019",
                    "end": "31.12.2037"
                },
                "technology": [
                    "NR"
                ],
                "source": [
                    {
                        "name": "EFIS CEPT",
                        "url": "https://efis.cept.org/view/rightofuseinfo.do"
                    }
                ]
            },
            {
                "provider": {
                    "name": "TIM",
                    "longName": "TIM",
                    "homePage": "https://www.tim.it",
                    "backgroundColor": "#0033a1",
                    "textColor": "white"
                },
                "frequency": {
                    "downLink": {
                        "start": 26900,
                        "end": 27100
                    },
                    "upLink": {
                        "start": 26900,
                        "end": 27100
                    }
                },
                "valid": {
                    "start": "1.1.2019",
                    "end": "31.12.2037"
                },
                "technology": [
                    "NR"
                ],
                "source": [
                    {
                        "name": "EFIS CEPT",
                        "url": "https://efis.cept.org/view/rightofuseinfo.do"
                    }
                ]
            },
            {
                "provider": {
                    "name": "Fastweb",
                    "longName": "Fastweb Nexxt",
                    "backgroundColor": "#fdc400",
                    "homePage": "https://nexxt.fastweb.it/",
                    "textColor": "black"
                },
                "frequency": {
                    "downLink": {
                        "start": 27100,
                        "end": 27300
                    },
                    "upLink": {
                        "start": 27100,
                        "end": 27300
                    }
                },
                "valid": {
                    "start": "1.1.2019",
                    "end": "31.12.2037"
                },
                "technology": [
                    "NR"
                ],
                "source": [
                    {
                        "name": "EFIS CEPT",
                        "url": "https://efis.cept.org/view/rightofuseinfo.do"
                    }
                ]
            }, 
            {
                "provider": {
                    "name": "Vodafone",
                    "longName": "Vodafone IT",
                    "homePage": "https://www.vodafone.it",
                    "backgroundColor": "#e60000",
                    "textColor": "white"
                },
                "frequency": {
                    "downLink": {
                        "start": 27300,
                        "end": 27500
                    },
                    "upLink": {
                        "start": 27300,
                        "end": 27500
                    }
                },
                "valid": {
                    "start": "1.1.2019",
                    "end": "31.12.2037"
                },
                "technology": [
                    "NR"
                ],
                "source": [
                    {
                        "name": "EFIS CEPT",
                        "url": "https://efis.cept.org/view/rightofuseinfo.do"
                    }
                ]
            }
        ]
    }
]
